%YAML 1.1
%TAG !u! tag:unity3d.com,2011:
--- !u!1 &6457976254002882421
GameObject:
  m_ObjectHideFlags: 0
  m_CorrespondingSourceObject: {fileID: 0}
  m_PrefabInstance: {fileID: 0}
  m_PrefabAsset: {fileID: 0}
  serializedVersion: 6
  m_Component:
  - component: {fileID: 5740433562198724820}
  - component: {fileID: 4747307153098398}
  - component: {fileID: 817971447132874365}
  m_Layer: 31
  m_Name: Layer1
  m_TagString: Untagged
  m_Icon: {fileID: 0}
  m_NavMeshLayer: 0
  m_StaticEditorFlags: 0
  m_IsActive: 1
--- !u!4 &5740433562198724820
Transform:
  m_ObjectHideFlags: 0
  m_CorrespondingSourceObject: {fileID: 0}
  m_PrefabInstance: {fileID: 0}
  m_PrefabAsset: {fileID: 0}
  m_GameObject: {fileID: 6457976254002882421}
  m_LocalRotation: {x: -0, y: -0, z: -0, w: 1}
  m_LocalPosition: {x: 0, y: 0, z: 0}
  m_LocalScale: {x: 1, y: 1, z: 1}
  m_Children: []
  m_Father: {fileID: 2922515450604038464}
  m_RootOrder: 0
  m_LocalEulerAnglesHint: {x: 0, y: 0, z: 0}
--- !u!1839735485 &4747307153098398
Tilemap:
  m_ObjectHideFlags: 0
  m_CorrespondingSourceObject: {fileID: 0}
  m_PrefabInstance: {fileID: 0}
  m_PrefabAsset: {fileID: 0}
  m_GameObject: {fileID: 6457976254002882421}
  m_Enabled: 1
  m_Tiles:
  - first: {x: -1, y: -4, z: 0}
    second:
      m_TileIndex: 13
      m_TileSpriteIndex: 13
      m_TileMatrixIndex: 0
      m_TileColorIndex: 0
      m_ObjectToInstantiate: {fileID: 0}
      m_TileFlags: 1
      m_ColliderType: 1
  - first: {x: 1, y: -4, z: 0}
    second:
      m_TileIndex: 18
      m_TileSpriteIndex: 18
      m_TileMatrixIndex: 0
      m_TileColorIndex: 0
      m_ObjectToInstantiate: {fileID: 0}
      m_TileFlags: 1
      m_ColliderType: 1
  - first: {x: -3, y: -3, z: 0}
    second:
      m_TileIndex: 16
      m_TileSpriteIndex: 16
      m_TileMatrixIndex: 0
      m_TileColorIndex: 0
      m_ObjectToInstantiate: {fileID: 0}
      m_TileFlags: 1
      m_ColliderType: 1
  - first: {x: -2, y: -3, z: 0}
    second:
      m_TileIndex: 15
      m_TileSpriteIndex: 15
      m_TileMatrixIndex: 0
      m_TileColorIndex: 0
      m_ObjectToInstantiate: {fileID: 0}
      m_TileFlags: 1
      m_ColliderType: 1
  - first: {x: -1, y: -3, z: 0}
    second:
      m_TileIndex: 14
      m_TileSpriteIndex: 14
      m_TileMatrixIndex: 0
      m_TileColorIndex: 0
      m_ObjectToInstantiate: {fileID: 0}
      m_TileFlags: 1
      m_ColliderType: 1
  - first: {x: 0, y: -3, z: 0}
    second:
      m_TileIndex: 17
      m_TileSpriteIndex: 17
      m_TileMatrixIndex: 0
      m_TileColorIndex: 0
      m_ObjectToInstantiate: {fileID: 0}
      m_TileFlags: 1
      m_ColliderType: 1
  - first: {x: -1, y: -1, z: 0}
    second:
      m_TileIndex: 0
      m_TileSpriteIndex: 0
      m_TileMatrixIndex: 0
      m_TileColorIndex: 0
      m_ObjectToInstantiate: {fileID: 0}
      m_TileFlags: 1
      m_ColliderType: 1
  - first: {x: 1, y: -1, z: 0}
    second:
      m_TileIndex: 3
      m_TileSpriteIndex: 3
      m_TileMatrixIndex: 0
      m_TileColorIndex: 0
      m_ObjectToInstantiate: {fileID: 0}
      m_TileFlags: 1
      m_ColliderType: 1
  - first: {x: -3, y: 0, z: 0}
    second:
      m_TileIndex: 5
      m_TileSpriteIndex: 5
      m_TileMatrixIndex: 0
      m_TileColorIndex: 0
      m_ObjectToInstantiate: {fileID: 0}
      m_TileFlags: 1
      m_ColliderType: 1
  - first: {x: -2, y: 0, z: 0}
    second:
      m_TileIndex: 4
      m_TileSpriteIndex: 4
      m_TileMatrixIndex: 0
      m_TileColorIndex: 0
      m_ObjectToInstantiate: {fileID: 0}
      m_TileFlags: 1
      m_ColliderType: 1
  - first: {x: -1, y: 0, z: 0}
    second:
      m_TileIndex: 1
      m_TileSpriteIndex: 1
      m_TileMatrixIndex: 0
      m_TileColorIndex: 0
      m_ObjectToInstantiate: {fileID: 0}
      m_TileFlags: 1
      m_ColliderType: 1
  - first: {x: 0, y: 0, z: 0}
    second:
      m_TileIndex: 2
      m_TileSpriteIndex: 2
      m_TileMatrixIndex: 0
      m_TileColorIndex: 0
      m_ObjectToInstantiate: {fileID: 0}
      m_TileFlags: 1
      m_ColliderType: 1
  - first: {x: -2, y: 2, z: 0}
    second:
      m_TileIndex: 8
      m_TileSpriteIndex: 8
      m_TileMatrixIndex: 0
      m_TileColorIndex: 0
      m_ObjectToInstantiate: {fileID: 0}
      m_TileFlags: 1
      m_ColliderType: 1
  - first: {x: -1, y: 2, z: 0}
    second:
      m_TileIndex: 6
      m_TileSpriteIndex: 6
      m_TileMatrixIndex: 0
      m_TileColorIndex: 0
      m_ObjectToInstantiate: {fileID: 0}
      m_TileFlags: 1
      m_ColliderType: 1
  - first: {x: 0, y: 2, z: 0}
    second:
      m_TileIndex: 7
      m_TileSpriteIndex: 7
      m_TileMatrixIndex: 0
      m_TileColorIndex: 0
      m_ObjectToInstantiate: {fileID: 0}
      m_TileFlags: 1
      m_ColliderType: 1
  - first: {x: 1, y: 2, z: 0}
    second:
      m_TileIndex: 9
      m_TileSpriteIndex: 9
      m_TileMatrixIndex: 0
      m_TileColorIndex: 0
      m_ObjectToInstantiate: {fileID: 0}
      m_TileFlags: 1
      m_ColliderType: 1
  - first: {x: 2, y: 2, z: 0}
    second:
      m_TileIndex: 10
      m_TileSpriteIndex: 10
      m_TileMatrixIndex: 0
      m_TileColorIndex: 0
      m_ObjectToInstantiate: {fileID: 0}
      m_TileFlags: 1
      m_ColliderType: 1
  - first: {x: 3, y: 2, z: 0}
    second:
      m_TileIndex: 11
      m_TileSpriteIndex: 11
      m_TileMatrixIndex: 0
      m_TileColorIndex: 0
      m_ObjectToInstantiate: {fileID: 0}
      m_TileFlags: 1
      m_ColliderType: 1
  - first: {x: 5, y: 2, z: 0}
    second:
      m_TileIndex: 19
      m_TileSpriteIndex: 19
      m_TileMatrixIndex: 0
      m_TileColorIndex: 0
      m_ObjectToInstantiate: {fileID: 0}
      m_TileFlags: 1
      m_ColliderType: 1
  - first: {x: 6, y: 2, z: 0}
    second:
      m_TileIndex: 20
      m_TileSpriteIndex: 20
      m_TileMatrixIndex: 0
      m_TileColorIndex: 0
      m_ObjectToInstantiate: {fileID: 0}
      m_TileFlags: 1
      m_ColliderType: 1
  - first: {x: 7, y: 2, z: 0}
    second:
      m_TileIndex: 21
      m_TileSpriteIndex: 21
      m_TileMatrixIndex: 0
      m_TileColorIndex: 0
      m_ObjectToInstantiate: {fileID: 0}
      m_TileFlags: 1
      m_ColliderType: 1
  - first: {x: 8, y: 2, z: 0}
    second:
      m_TileIndex: 22
      m_TileSpriteIndex: 22
      m_TileMatrixIndex: 0
      m_TileColorIndex: 0
      m_ObjectToInstantiate: {fileID: 0}
      m_TileFlags: 1
      m_ColliderType: 1
  - first: {x: 9, y: 2, z: 0}
    second:
      m_TileIndex: 24
      m_TileSpriteIndex: 24
      m_TileMatrixIndex: 0
      m_TileColorIndex: 0
      m_ObjectToInstantiate: {fileID: 0}
      m_TileFlags: 1
      m_ColliderType: 1
  - first: {x: 10, y: 2, z: 0}
    second:
      m_TileIndex: 25
      m_TileSpriteIndex: 25
      m_TileMatrixIndex: 0
      m_TileColorIndex: 0
      m_ObjectToInstantiate: {fileID: 0}
      m_TileFlags: 1
      m_ColliderType: 1
  - first: {x: 1, y: 3, z: 0}
    second:
      m_TileIndex: 12
      m_TileSpriteIndex: 12
      m_TileMatrixIndex: 0
      m_TileColorIndex: 0
      m_ObjectToInstantiate: {fileID: 0}
      m_TileFlags: 1
      m_ColliderType: 1
  - first: {x: 8, y: 3, z: 0}
    second:
      m_TileIndex: 23
      m_TileSpriteIndex: 23
      m_TileMatrixIndex: 0
      m_TileColorIndex: 0
      m_ObjectToInstantiate: {fileID: 0}
      m_TileFlags: 1
      m_ColliderType: 1
  m_AnimatedTiles: {}
  m_TileAssetArray:
  - m_RefCount: 1
    m_Data: {fileID: 11400000, guid: ef9dc1b8c9c66f8449531bc9025f396f, type: 2}
  - m_RefCount: 1
    m_Data: {fileID: 11400000, guid: 966e6c3a6a906fa42af508ccb6cf8540, type: 2}
  - m_RefCount: 1
    m_Data: {fileID: 11400000, guid: 413e73ecdf7610245a1b62077c57b46f, type: 2}
  - m_RefCount: 1
    m_Data: {fileID: 11400000, guid: f3e8ffa1d6ecd2245a216a7f59f94f85, type: 2}
  - m_RefCount: 1
    m_Data: {fileID: 11400000, guid: 21435883e5405da4e827b68ea7b12728, type: 2}
  - m_RefCount: 1
    m_Data: {fileID: 11400000, guid: 71c93b7beac93cf409ea7105b159aeb7, type: 2}
  - m_RefCount: 1
    m_Data: {fileID: 11400000, guid: 50e6253a0420d6942989c22de5d5decc, type: 2}
  - m_RefCount: 1
    m_Data: {fileID: 11400000, guid: e262b59070546c946be87c0ece093641, type: 2}
  - m_RefCount: 1
    m_Data: {fileID: 11400000, guid: 1ef8a558e2885d346bfbe46bff8217ed, type: 2}
  - m_RefCount: 1
    m_Data: {fileID: 11400000, guid: 3f80f08c65236774784df5321681b8b1, type: 2}
  - m_RefCount: 1
    m_Data: {fileID: 11400000, guid: 9bb305bd7c9d4ac44901374d40a32255, type: 2}
  - m_RefCount: 1
    m_Data: {fileID: 11400000, guid: 3c0c3bf696da0d143a4a67defa73e2f5, type: 2}
  - m_RefCount: 1
    m_Data: {fileID: 11400000, guid: 4ed7043a869a3614a8548c6967e1fab2, type: 2}
  - m_RefCount: 1
    m_Data: {fileID: 11400000, guid: b2479d72699399347b8eb99017b200d1, type: 2}
  - m_RefCount: 1
    m_Data: {fileID: 11400000, guid: 7a7f3f8efcdb500418f0cbc2869add12, type: 2}
  - m_RefCount: 1
    m_Data: {fileID: 11400000, guid: 4628e76998685ef408dd1d2f95587258, type: 2}
  - m_RefCount: 1
    m_Data: {fileID: 11400000, guid: fab303266367b574bb4be3da52a32156, type: 2}
  - m_RefCount: 1
    m_Data: {fileID: 11400000, guid: cc19b668a634c434ab3e6a562c24a340, type: 2}
  - m_RefCount: 1
    m_Data: {fileID: 11400000, guid: 67c0de544066f27488420a4d68d7d808, type: 2}
  - m_RefCount: 1
    m_Data: {fileID: 11400000, guid: 43f20c1ef4c698a4fbabea70bb911530, type: 2}
  - m_RefCount: 1
    m_Data: {fileID: 11400000, guid: 5fe271671a703b74aa9dd06f456484dd, type: 2}
  - m_RefCount: 1
    m_Data: {fileID: 11400000, guid: 4acd10f750617644d83bbdb15660bb21, type: 2}
  - m_RefCount: 1
    m_Data: {fileID: 11400000, guid: e0cfdf7f20fc3ad479503641089af685, type: 2}
  - m_RefCount: 1
    m_Data: {fileID: 11400000, guid: b824e8ae8e168a440b0082838a93d841, type: 2}
  - m_RefCount: 1
    m_Data: {fileID: 11400000, guid: 80bae7f00324fe44fa61f1ca52feab9a, type: 2}
  - m_RefCount: 1
    m_Data: {fileID: 11400000, guid: 3926f7130236f2544aaa8dec53a9787e, type: 2}
  m_TileSpriteArray:
  - m_RefCount: 1
    m_Data: {fileID: 21300048, guid: 6ff7e0c0851a5e4499ff751a6661e1c7, type: 3}
  - m_RefCount: 1
    m_Data: {fileID: 21300038, guid: 6ff7e0c0851a5e4499ff751a6661e1c7, type: 3}
  - m_RefCount: 1
    m_Data: {fileID: 21300040, guid: 6ff7e0c0851a5e4499ff751a6661e1c7, type: 3}
  - m_RefCount: 1
    m_Data: {fileID: 21300050, guid: 6ff7e0c0851a5e4499ff751a6661e1c7, type: 3}
  - m_RefCount: 1
    m_Data: {fileID: 21300036, guid: 6ff7e0c0851a5e4499ff751a6661e1c7, type: 3}
  - m_RefCount: 1
    m_Data: {fileID: 21300034, guid: 6ff7e0c0851a5e4499ff751a6661e1c7, type: 3}
  - m_RefCount: 1
    m_Data: {fileID: 21300054, guid: 6ff7e0c0851a5e4499ff751a6661e1c7, type: 3}
  - m_RefCount: 1
    m_Data: {fileID: 21300056, guid: 6ff7e0c0851a5e4499ff751a6661e1c7, type: 3}
  - m_RefCount: 1
    m_Data: {fileID: 21300052, guid: 6ff7e0c0851a5e4499ff751a6661e1c7, type: 3}
  - m_RefCount: 1
    m_Data: {fileID: 21300058, guid: 6ff7e0c0851a5e4499ff751a6661e1c7, type: 3}
  - m_RefCount: 1
    m_Data: {fileID: 21300060, guid: 6ff7e0c0851a5e4499ff751a6661e1c7, type: 3}
  - m_RefCount: 1
    m_Data: {fileID: 21300062, guid: 6ff7e0c0851a5e4499ff751a6661e1c7, type: 3}
  - m_RefCount: 1
    m_Data: {fileID: 21300042, guid: 6ff7e0c0851a5e4499ff751a6661e1c7, type: 3}
  - m_RefCount: 1
    m_Data: {fileID: 21300014, guid: 6ff7e0c0851a5e4499ff751a6661e1c7, type: 3}
  - m_RefCount: 1
    m_Data: {fileID: 21300004, guid: 6ff7e0c0851a5e4499ff751a6661e1c7, type: 3}
  - m_RefCount: 1
    m_Data: {fileID: 21300002, guid: 6ff7e0c0851a5e4499ff751a6661e1c7, type: 3}
  - m_RefCount: 1
    m_Data: {fileID: 21300000, guid: 6ff7e0c0851a5e4499ff751a6661e1c7, type: 3}
  - m_RefCount: 1
    m_Data: {fileID: 21300006, guid: 6ff7e0c0851a5e4499ff751a6661e1c7, type: 3}
  - m_RefCount: 1
    m_Data: {fileID: 21300016, guid: 6ff7e0c0851a5e4499ff751a6661e1c7, type: 3}
  - m_RefCount: 1
    m_Data: {fileID: 21300018, guid: 6ff7e0c0851a5e4499ff751a6661e1c7, type: 3}
  - m_RefCount: 1
    m_Data: {fileID: 21300020, guid: 6ff7e0c0851a5e4499ff751a6661e1c7, type: 3}
  - m_RefCount: 1
    m_Data: {fileID: 21300022, guid: 6ff7e0c0851a5e4499ff751a6661e1c7, type: 3}
  - m_RefCount: 1
    m_Data: {fileID: 21300024, guid: 6ff7e0c0851a5e4499ff751a6661e1c7, type: 3}
  - m_RefCount: 1
    m_Data: {fileID: 21300008, guid: 6ff7e0c0851a5e4499ff751a6661e1c7, type: 3}
  - m_RefCount: 1
    m_Data: {fileID: 21300026, guid: 6ff7e0c0851a5e4499ff751a6661e1c7, type: 3}
  - m_RefCount: 1
    m_Data: {fileID: 21300028, guid: 6ff7e0c0851a5e4499ff751a6661e1c7, type: 3}
  m_TileMatrixArray:
  - m_RefCount: 26
    m_Data:
      e00: 1
      e01: 0
      e02: 0
      e03: 0
      e10: 0
      e11: 1
      e12: 0
      e13: 0
      e20: 0
      e21: 0
      e22: 1
      e23: 0
      e30: 0
      e31: 0
      e32: 0
      e33: 1
  m_TileColorArray:
  - m_RefCount: 26
    m_Data: {r: 1, g: 1, b: 1, a: 1}
  m_AnimationFrameRate: 1
  m_Color: {r: 1, g: 1, b: 1, a: 1}
  m_Origin: {x: -3, y: -4, z: 0}
  m_Size: {x: 14, y: 8, z: 1}
  m_TileAnchor: {x: 0.5, y: 0.5, z: 0}
  m_TileOrientation: 0
  m_TileOrientationMatrix:
    e00: 1
    e01: 0
    e02: 0
    e03: 0
    e10: 0
    e11: 1
    e12: 0
    e13: 0
    e20: 0
    e21: 0
    e22: 1
    e23: 0
    e30: 0
    e31: 0
    e32: 0
    e33: 1
--- !u!483693784 &817971447132874365
TilemapRenderer:
  m_ObjectHideFlags: 0
  m_CorrespondingSourceObject: {fileID: 0}
  m_PrefabInstance: {fileID: 0}
  m_PrefabAsset: {fileID: 0}
  m_GameObject: {fileID: 6457976254002882421}
  m_Enabled: 0
  m_CastShadows: 0
  m_ReceiveShadows: 0
  m_DynamicOccludee: 0
  m_MotionVectors: 1
  m_LightProbeUsage: 0
  m_ReflectionProbeUsage: 0
  m_RenderingLayerMask: 1
  m_RendererPriority: 0
  m_Materials:
  - {fileID: 10754, guid: 0000000000000000f000000000000000, type: 0}
  m_StaticBatchInfo:
    firstSubMesh: 0
    subMeshCount: 0
  m_StaticBatchRoot: {fileID: 0}
  m_ProbeAnchor: {fileID: 0}
  m_LightProbeVolumeOverride: {fileID: 0}
  m_ScaleInLightmap: 1
  m_PreserveUVs: 0
  m_IgnoreNormalsForChartDetection: 0
  m_ImportantGI: 0
  m_StitchLightmapSeams: 0
  m_SelectedEditorRenderState: 0
  m_MinimumChartSize: 4
  m_AutoUVMaxDistance: 0.5
  m_AutoUVMaxAngle: 89
  m_LightmapParameters: {fileID: 0}
  m_SortingLayerID: 0
  m_SortingLayer: 0
  m_SortingOrder: 0
  m_ChunkSize: {x: 32, y: 32, z: 32}
  m_ChunkCullingBounds: {x: 0, y: 0, z: 0}
  m_MaxChunkCount: 16
  m_MaxFrameAge: 16
  m_SortOrder: 0
  m_Mode: 0
  m_DetectChunkCullingBounds: 0
  m_MaskInteraction: 0
--- !u!1 &8121361568284609088
GameObject:
  m_ObjectHideFlags: 0
  m_CorrespondingSourceObject: {fileID: 0}
  m_PrefabInstance: {fileID: 0}
  m_PrefabAsset: {fileID: 0}
  serializedVersion: 6
  m_Component:
  - component: {fileID: 2922515450604038464}
  - component: {fileID: 2720242608913612751}
  m_Layer: 31
  m_Name: Background Palette
  m_TagString: Untagged
  m_Icon: {fileID: 0}
  m_NavMeshLayer: 0
  m_StaticEditorFlags: 0
  m_IsActive: 1
--- !u!4 &2922515450604038464
Transform:
  m_ObjectHideFlags: 0
  m_CorrespondingSourceObject: {fileID: 0}
  m_PrefabInstance: {fileID: 0}
  m_PrefabAsset: {fileID: 0}
  m_GameObject: {fileID: 8121361568284609088}
  m_LocalRotation: {x: 0, y: 0, z: 0, w: 1}
  m_LocalPosition: {x: 0, y: 0, z: 0}
  m_LocalScale: {x: 1, y: 1, z: 1}
  m_Children:
  - {fileID: 5740433562198724820}
  m_Father: {fileID: 0}
  m_RootOrder: 0
  m_LocalEulerAnglesHint: {x: 0, y: 0, z: 0}
--- !u!156049354 &2720242608913612751
Grid:
  m_ObjectHideFlags: 0
  m_CorrespondingSourceObject: {fileID: 0}
  m_PrefabInstance: {fileID: 0}
  m_PrefabAsset: {fileID: 0}
  m_GameObject: {fileID: 8121361568284609088}
  m_Enabled: 1
  m_CellSize: {x: 0.16, y: 0.15, z: 0}
  m_CellGap: {x: 0, y: 0, z: 0}
  m_CellLayout: 0
  m_CellSwizzle: 0
--- !u!114 &114144253640495122
MonoBehaviour:
  m_ObjectHideFlags: 0
  m_CorrespondingSourceObject: {fileID: 0}
  m_PrefabInstance: {fileID: 0}
  m_PrefabAsset: {fileID: 0}
  m_GameObject: {fileID: 0}
  m_Enabled: 1
  m_EditorHideFlags: 0
  m_Script: {fileID: 12395, guid: 0000000000000000e000000000000000, type: 0}
  m_Name: Palette Settings
  m_EditorClassIdentifier: 
  cellSizing: 0
