%YAML 1.1
%TAG !u! tag:unity3d.com,2011:
--- !u!78 &1
TagManager:
  serializedVersion: 2
  tags:
  - Pushable
  - Killable
  - GameManager
  - Bunker
  - PausePanel
  - CollectionNote
  layers:
  - Default
  - TransparentFX
  - Ignore Raycast
  - 
  - Water
  - UI
  - 
  - 
  - Ground
  - Pushable
  - Killable
  - Decoration
  - Bunker
  - Fall
  - 
  - 
  - 
  - 
  - 
  - 
  - 
  - 
  - 
  - 
  - 
  - 
  - 
  - 
  - 
  - 
  - 
  - 
  m_SortingLayers:
  - name: Default
    uniqueID: 0
    locked: 0
  - name: Ground
    uniqueID: 2933260801
    locked: 0
  - name: Clouds
    uniqueID: 1725138097
    locked: 0
  - name: Background
    uniqueID: 1336004217
    locked: 0
  - name: Houses
    uniqueID: 2425803145
    locked: 0
  - name: Decoration
    uniqueID: 4047981389
    locked: 0
  - name: Stairs
    uniqueID: 1327023123
    locked: 0
  - name: Bettwen player and houses
    uniqueID: 768101281
    locked: 0
  - name: Player
    uniqueID: 2596454941
    locked: 0
  - name: Front
    uniqueID: 888984433
    locked: 0
  - name: Before front
    uniqueID: 1244940131
    locked: 0
  - name: Toxic Water
    uniqueID: 3144707603
    locked: 0
